uart-tx/examples/txchar_tb.vcd
$date
	Mon Dec 14 08:54:00 2015
$end
$version
	Icarus Verilog
$end
$timescale
	1ns
$end
$scope module txchar_tb $end
$var wire 1 ! tx $end
$var reg 1 " clk $end
$var reg 1 # rstn $end
$scope module dut $end
$var wire 1 $ clk $end
$var wire 1 % rstn $end
$var wire 1 ! tx $end
$scope module TX0 $end
$var wire 1 $ clk $end
$var wire 1 & clk_baud $end
$var wire 8 ' data [7:0] $end
$var wire 1 % rstn $end
$var wire 1 ( start $end
$var reg 1 ) baud_en $end
$var reg 4 * bitc [3:0] $end
$var reg 8 + data_r [7:0] $end
$var reg 1 , load $end
$var reg 2 - next_state [1:0] $end
$var reg 1 . ready $end
$var reg 10 / shifter [9:0] $end
$var reg 2 0 state [1:0] $end
$var reg 1 1 tx $end
$scope module BAUD0 $end
$var wire 1 $ clk $end
$var wire 1 2 clk_ena $end
$var wire 1 & clk_out $end
$var wire 1 % rstn $end
$var reg 7 3 divcounter [6:0] $end
$upscope $end
$upscope $end
$upscope $end
$upscope $end
$enddefinitions $end
#0
$dumpvars
b0 3
02
x1
bx 0
bx /
0.
bx -
0,
bx +
bx *
0)
1(
b1000001 '
0&
0%
0$
0#
0"
x!
$end
#50
1.
b1 -
b1111111111 /
b0 *
b0 0
1"
1$
#100
0"
0$
#150
11
1!
b1000001 +
1"
1$
#200
0"
0$
#250
1"
1$
#300
0"
0$
#350
1"
1$
#400
0"
0$
#450
1"
1$
#500
0"
0$
#550
1"
1$
#600
0"
0$
1#
1%
#650
b10 -
1)
12
1,
0.
b1100111 3
b1 0
1"
1$
#700
0"
0$
#750
1)
12
0,
1&
b10 0
b100000101 /
b0 3
1"
1$
#800
0"
0$
#850
0&
1)
12
b1 3
b1010000010 /
b1 *
1"
1$
#900
0"
0$
#950
01
0!
b10 3
1"
1$
#1000
0"
0$
#1050
b11 3
1"
1$
#1100
0"
0$
#1150
b100 3
1"
1$
#1200
0"
0$
#1250
b101 3
1"
1$
#1300
0"
0$
#1350
b110 3
1"
1$
#1400
0"
0$
#1450
b111 3
1"
1$
#1500
0"
0$
#1550
b1000 3
1"
1$
#1600
0"
0$
#1650
b1001 3
1"
1$
#1700
0"
0$
#1750
b1010 3
1"
1$
#1800
0"
0$
#1850
b1011 3
1"
1$
#1900
0"
0$
#1950
b1100 3
1"
1$
#2000
0"
0$
#2050
b1101 3
1"
1$
#2100
0"
0$
#2150
b1110 3
1"
1$
#2200
0"
0$
#2250
b1111 3
1"
1$
#2300
0"
0$
#2350
b10000 3
1"
1$
#2400
0"
0$
#2450
b10001 3
1"
1$
#2500
0"
0$
#2550
b10010 3
1"
1$
#2600
0"
0$
#2650
b10011 3
1"
1$
#2700
0"
0$
#2750
b10100 3
1"
1$
#2800
0"
0$
#2850
b10101 3
1"
1$
#2900
0"
0$
#2950
b10110 3
1"
1$
#3000
0"
0$
#3050
b10111 3
1"
1$
#3100
0"
0$
#3150
b11000 3
1"
1$
#3200
0"
0$
#3250
b11001 3
1"
1$
#3300
0"
0$
#3350
b11010 3
1"
1$
#3400
0"
0$
#3450
b11011 3
1"
1$
#3500
0"
0$
#3550
b11100 3
1"
1$
#3600
0"
0$
#3650
b11101 3
1"
1$
#3700
0"
0$
#3750
b11110 3
1"
1$
#3800
0"
0$
#3850
b11111 3
1"
1$
#3900
0"
0$
#3950
b100000 3
1"
1$
#4000
0"
0$
#4050
b100001 3
1"
1$
#4100
0"
0$
#4150
b100010 3
1"
1$
#4200
0"
0$
#4250
b100011 3
1"
1$
#4300
0"
0$
#4350
b100100 3
1"
1$
#4400
0"
0$
#4450
b100101 3
1"
1$
#4500
0"
0$
#4550
b100110 3
1"
1$
#4600
0"
0$
#4650
b100111 3
1"
1$
#4700
0"
0$
#4750
b101000 3
1"
1$
#4800
0"
0$
#4850
b101001 3
1"
1$
#4900
0"
0$
#4950
b101010 3
1"
1$
#5000
0"
0$
#5050
b101011 3
1"
1$
#5100
0"
0$
#5150
b101100 3
1"
1$
#5200
0"
0$
#5250
b101101 3
1"
1$
#5300
0"
0$
#5350
b101110 3
1"
1$
#5400
0"
0$
#5450
b101111 3
1"
1$
#5500
0"
0$
#5550
b110000 3
1"
1$
#5600
0"
0$
#5650
b110001 3
1"
1$
#5700
0"
0$
#5750
b110010 3
1"
1$
#5800
0"
0$
#5850
b110011 3
1"
1$
#5900
0"
0$
#5950
b110100 3
1"
1$
#6000
0"
0$
#6050
b110101 3
1"
1$
#6100
0"
0$
#6150
b110110 3
1"
1$
#6200
0"
0$
#6250
b110111 3
1"
1$
#6300
0"
0$
#6350
b111000 3
1"
1$
#6400
0"
0$
#6450
b111001 3
1"
1$
#6500
0"
0$
#6550
b111010 3
1"
1$
#6600
0"
0$
#6650
b111011 3
1"
1$
#6700
0"
0$
#6750
b111100 3
1"
1$
#6800
0"
0$
#6850
b111101 3
1"
1$
#6900
0"
0$
#6950
b111110 3
1"
1$
#7000
0"
0$
#7050
b111111 3
1"
1$
#7100
0"
0$
#7150
b1000000 3
1"
1$
#7200
0"
0$
#7250
b1000001 3
1"
1$
#7300
0"
0$
#7350
b1000010 3
1"
1$
#7400
0"
0$
#7450
b1000011 3
1"
1$
#7500
0"
0$
#7550
b1000100 3
1"
1$
#7600
0"
0$
#7650
b1000101 3
1"
1$
#7700
0"
0$
#7750
b1000110 3
1"
1$
#7800
0"
0$
#7850
b1000111 3
1"
1$
#7900
0"
0$
#7950
b1001000 3
1"
1$
#8000
0"
0$
#8050
b1001001 3
1"
1$
#8100
0"
0$
#8150
b1001010 3
1"
1$
#8200
0"
0$
#8250
b1001011 3
1"
1$
#8300
0"
0$
#8350
b1001100 3
1"
1$
#8400
0"
0$
#8450
b1001101 3
1"
1$
#8500
0"
0$
#8550
b1001110 3
1"
1$
#8600
0"
0$
#8650
b1001111 3
1"
1$
#8700
0"
0$
#8750
b1010000 3
1"
1$
#8800
0"
0$
#8850
b1010001 3
1"
1$
#8900
0"
0$
#8950
b1010010 3
1"
1$
#9000
0"
0$
#9050
b1010011 3
1"
1$
#9100
0"
0$
#9150
b1010100 3
1"
1$
#9200
0"
0$
#9250
b1010101 3
1"
1$
#9300
0"
0$
#9350
b1010110 3
1"
1$
#9400
0"
0$
#9450
b1010111 3
1"
1$
#9500
0"
0$
#9550
b1011000 3
1"
1$
#9600
0"
0$
#9650
b1011001 3
1"
1$
#9700
0"
0$
#9750
b1011010 3
1"
1$
#9800
0"
0$
#9850
b1011011 3
1"
1$
#9900
0"
0$
#9950
b1011100 3
1"
1$
#10000
0"
0$
#10050
b1011101 3
1"
1$
#10100
0"
0$
#10150
b1011110 3
1"
1$
#10200
0"
0$
#10250
b1011111 3
1"
1$
#10300
0"
0$
#10350
b1100000 3
1"
1$
#10400
0"
0$
#10450
b1100001 3
1"
1$
#10500
0"
0$
#10550
b1100010 3
1"
1$
#10600
0"
0$
#10650
b1100011 3
1"
1$
#10700
0"
0$
#10750
b1100100 3
1"
1$
#10800
0"
0$
#10850
b1100101 3
1"
1$
#10900
0"
0$
#10950
b1100110 3
1"
1$
#11000
0"
0$
#11050
b1100111 3
1"
1$
#11100
0"
0$
#11150
1&
b0 3
1"
1$
#11200
0"
0$
#11250
0&
1)
12
b1 3
b1101000001 /
b10 *
1"
1$
#11300
0"
0$
#11350
11
1!
b10 3
1"
1$
#11400
0"
0$
#11450
b11 3
1"
1$
#11500
0"
0$
#11550
b100 3
1"
1$
#11600
0"
0$
#11650
b101 3
1"
1$
#11700
0"
0$
#11750
b110 3
1"
1$
#11800
0"
0$
#11850
b111 3
1"
1$
#11900
0"
0$
#11950
b1000 3
1"
1$
#12000
0"
0$
#12050
b1001 3
1"
1$
#12100
0"
0$
#12150
b1010 3
1"
1$
#12200
0"
0$
#12250
b1011 3
1"
1$
#12300
0"
0$
#12350
b1100 3
1"
1$
#12400
0"
0$
#12450
b1101 3
1"
1$
#12500
0"
0$
#12550
b1110 3
1"
1$
#12600
0"
0$
#12650
b1111 3
1"
1$
#12700
0"
0$
#12750
b10000 3
1"
1$
#12800
0"
0$
#12850
b10001 3
1"
1$
#12900
0"
0$
#12950
b10010 3
1"
1$
#13000
0"
0$
#13050
b10011 3
1"
1$
#13100
0"
0$
#13150
b10100 3
1"
1$
#13200
0"
0$
#13250
b10101 3
1"
1$
#13300
0"
0$
#13350
b10110 3
1"
1$
#13400
0"
0$
#13450
b10111 3
1"
1$
#13500
0"
0$
#13550
b11000 3
1"
1$
#13600
0"
0$
#13650
b11001 3
1"
1$
#13700
0"
0$
#13750
b11010 3
1"
1$
#13800
0"
0$
#13850
b11011 3
1"
1$
#13900
0"
0$
#13950
b11100 3
1"
1$
#14000
0"
0$
#14050
b11101 3
1"
1$
#14100
0"
0$
#14150
b11110 3
1"
1$
#14200
0"
0$
#14250
b11111 3
1"
1$
#14300
0"
0$
#14350
b100000 3
1"
1$
#14400
0"
0$
#14450
b100001 3
1"
1$
#14500
0"
0$
#14550
b100010 3
1"
1$
#14600
0"
0$
#14650
b100011 3
1"
1$
#14700
0"
0$
#14750
b100100 3
1"
1$
#14800
0"
0$
#14850
b100101 3
1"
1$
#14900
0"
0$
#14950
b100110 3
1"
1$
#15000
0"
0$
#15050
b100111 3
1"
1$
#15100
0"
0$
#15150
b101000 3
1"
1$
#15200
0"
0$
#15250
b101001 3
1"
1$
#15300
0"
0$
#15350
b101010 3
1"
1$
#15400
0"
0$
#15450
b101011 3
1"
1$
#15500
0"
0$
#15550
b101100 3
1"
1$
#15600
0"
0$
#15650
b101101 3
1"
1$
#15700
0"
0$
#15750
b101110 3
1"
1$
#15800
0"
0$
#15850
b101111 3
1"
1$
#15900
0"
0$
#15950
b110000 3
1"
1$
#16000
0"
0$
#16050
b110001 3
1"
1$
#16100
0"
0$
#16150
b110010 3
1"
1$
#16200
0"
0$
#16250
b110011 3
1"
1$
#16300
0"
0$
#16350
b110100 3
1"
1$
#16400
0"
0$
#16450
b110101 3
1"
1$
#16500
0"
0$
#16550
b110110 3
1"
1$
#16600
0"
0$
#16650
b110111 3
1"
1$
#16700
0"
0$
#16750
b111000 3
1"
1$
#16800
0"
0$
#16850
b111001 3
1"
1$
#16900
0"
0$
#16950
b111010 3
1"
1$
#17000
0"
0$
#17050
b111011 3
1"
1$
#17100
0"
0$
#17150
b111100 3
1"
1$
#17200
0"
0$
#17250
b111101 3
1"
1$
#17300
0"
0$
#17350
b111110 3
1"
1$
#17400
0"
0$
#17450
b111111 3
1"
1$
#17500
0"
0$
#17550
b1000000 3
1"
1$
#17600
0"
0$
#17650
b1000001 3
1"
1$
#17700
0"
0$
#17750
b1000010 3
1"
1$
#17800
0"
0$
#17850
b1000011 3
1"
1$
#17900
0"
0$
#17950
b1000100 3
1"
1$
#18000
0"
0$
#18050
b1000101 3
1"
1$
#18100
0"
0$
#18150
b1000110 3
1"
1$
#18200
0"
0$
#18250
b1000111 3
1"
1$
#18300
0"
0$
#18350
b1001000 3
1"
1$
#18400
0"
0$
#18450
b1001001 3
1"
1$
#18500
0"
0$
#18550
b1001010 3
1"
1$
#18600
0"
0$
#18650
b1001011 3
1"
1$
#18700
0"
0$
#18750
b1001100 3
1"
1$
#18800
0"
0$
#18850
b1001101 3
1"
1$
#18900
0"
0$
#18950
b1001110 3
1"
1$
#19000
0"
0$
#19050
b1001111 3
1"
1$
#19100
0"
0$
#19150
b1010000 3
1"
1$
#19200
0"
0$
#19250
b1010001 3
1"
1$
#19300
0"
0$
#19350
b1010010 3
1"
1$
#19400
0"
0$
#19450
b1010011 3
1"
1$
#19500
0"
0$
#19550
b1010100 3
1"
1$
#19600
0"
0$
#19650
b1010101 3
1"
1$
#19700
0"
0$
#19750
b1010110 3
1"
1$
#19800
0"
0$
#19850
b1010111 3
1"
1$
#19900
0"
0$
#19950
b1011000 3
1"
1$
#20000
0"
0$
#20050
b1011001 3
1"
1$
#20100
0"
0$
#20150
b1011010 3
1"
1$
#20200
0"
0$
#20250
b1011011 3
1"
1$
#20300
0"
0$
#20350
b1011100 3
1"
1$
#20400
0"
0$
#20450
b1011101 3
1"
1$
#20500
0"
0$
#20550
b1011110 3
1"
1$
#20600
0"
0$
#20650
b1011111 3
1"
1$
#20700
0"
0$
#20750
b1100000 3
1"
1$
#20800
0"
0$
#20850
b1100001 3
1"
1$
#20900
0"
0$
#20950
b1100010 3
1"
1$
#21000
0"
0$
#21050
b1100011 3
1"
1$
#21100
0"
0$
#21150
b1100100 3
1"
1$
#21200
0"
0$
#21250
b1100101 3
1"
1$
#21300
0"
0$
#21350
b1100110 3
1"
1$
#21400
0"
0$
#21450
b1100111 3
1"
1$
#21500
0"
0$
#21550
1&
b0 3
1"
1$
#21600
0"
0$
#21650
0&
1)
12
b1 3
b1110100000 /
b11 *
1"
1$
#21700
0"
0$
#21750
01
0!
b10 3
1"
1$
#21800
0"
0$
#21850
b11 3
1"
1$
#21900
0"
0$
#21950
b100 3
1"
1$
#22000
0"
0$
#22050
b101 3
1"
1$
#22100
0"
0$
#22150
b110 3
1"
1$
#22200
0"
0$
#22250
b111 3
1"
1$
#22300
0"
0$
#22350
b1000 3
1"
1$
#22400
0"
0$
#22450
b1001 3
1"
1$
#22500
0"
0$
#22550
b1010 3
1"
1$
#22600
0"
0$
#22650
b1011 3
1"
1$
#22700
0"
0$
#22750
b1100 3
1"
1$
#22800
0"
0$
#22850
b1101 3
1"
1$
#22900
0"
0$
#22950
b1110 3
1"
1$
#23000
0"
0$
#23050
b1111 3
1"
1$
#23100
0"
0$
#23150
b10000 3
1"
1$
#23200
0"
0$
#23250
b10001 3
1"
1$
#23300
0"
0$
#23350
b10010 3
1"
1$
#23400
0"
0$
#23450
b10011 3
1"
1$
#23500
0"
0$
#23550
b10100 3
1"
1$
#23600
0"
0$
#23650
b10101 3
1"
1$
#23700
0"
0$
#23750
b10110 3
1"
1$
#23800
0"
0$
#23850
b10111 3
1"
1$
#23900
0"
0$
#23950
b11000 3
1"
1$
#24000
0"
0$
#24050
b11001 3
1"
1$
#24100
0"
0$
#24150
b11010 3
1"
1$
#24200
0"
0$
#24250
b11011 3
1"
1$
#24300
0"
0$
#24350
b11100 3
1"
1$
#24400
0"
0$
#24450
b11101 3
1"
1$
#24500
0"
0$
#24550
b11110 3
1"
1$
#24600
0"
0$
#24650
b11111 3
1"
1$
#24700
0"
0$
#24750
b100000 3
1"
1$
#24800
0"
0$
#24850
b100001 3
1"
1$
#24900
0"
0$
#24950
b100010 3
1"
1$
#25000
0"
0$
#25050
b100011 3
1"
1$
#25100
0"
0$
#25150
b100100 3
1"
1$
#25200
0"
0$
#25250
b100101 3
1"
1$
#25300
0"
0$
#25350
b100110 3
1"
1$
#25400
0"
0$
#25450
b100111 3
1"
1$
#25500
0"
0$
#25550
b101000 3
1"
1$
#25600
0"
0$
#25650
b101001 3
1"
1$
#25700
0"
0$
#25750
b101010 3
1"
1$
#25800
0"
0$
#25850
b101011 3
1"
1$
#25900
0"
0$
#25950
b101100 3
1"
1$
#26000
0"
0$
#26050
b101101 3
1"
1$
#26100
0"
0$
#26150
b101110 3
1"
1$
#26200
0"
0$
#26250
b101111 3
1"
1$
#26300
0"
0$
#26350
b110000 3
1"
1$
#26400
0"
0$
#26450
b110001 3
1"
1$
#26500
0"
0$
#26550
b110010 3
1"
1$
#26600
0"
0$
#26650
b110011 3
1"
1$
#26700
0"
0$
#26750
b110100 3
1"
1$
#26800
0"
0$
#26850
b110101 3
1"
1$
#26900
0"
0$
#26950
b110110 3
1"
1$
#27000
0"
0$
#27050
b110111 3
1"
1$
#27100
0"
0$
#27150
b111000 3
1"
1$
#27200
0"
0$
#27250
b111001 3
1"
1$
#27300
0"
0$
#27350
b111010 3
1"
1$
#27400
0"
0$
#27450
b111011 3
1"
1$
#27500
0"
0$
#27550
b111100 3
1"
1$
#27600
0"
0$
#27650
b111101 3
1"
1$
#27700
0"
0$
#27750
b111110 3
1"
1$
#27800
0"
0$
#27850
b111111 3
1"
1$
#27900
0"
0$
#27950
b1000000 3
1"
1$
#28000
0"
0$
#28050
b1000001 3
1"
1$
#28100
0"
0$
#28150
b1000010 3
1"
1$
#28200
0"
0$
#28250
b1000011 3
1"
1$
#28300
0"
0$
#28350
b1000100 3
1"
1$
#28400
0"
0$
#28450
b1000101 3
1"
1$
#28500
0"
0$
#28550
b1000110 3
1"
1$
#28600
0"
0$
#28650
b1000111 3
1"
1$
#28700
0"
0$
#28750
b1001000 3
1"
1$
#28800
0"
0$
#28850
b1001001 3
1"
1$
#28900
0"
0$
#28950
b1001010 3
1"
1$
#29000
0"
0$
#29050
b1001011 3
1"
1$
#29100
0"
0$
#29150
b1001100 3
1"
1$
#29200
0"
0$
#29250
b1001101 3
1"
1$
#29300
0"
0$
#29350
b1001110 3
1"
1$
#29400
0"
0$
#29450
b1001111 3
1"
1$
#29500
0"
0$
#29550
b1010000 3
1"
1$
#29600
0"
0$
#29650
b1010001 3
1"
1$
#29700
0"
0$
#29750
b1010010 3
1"
1$
#29800
0"
0$
#29850
b1010011 3
1"
1$
#29900
0"
0$
#29950
b1010100 3
1"
1$
#30000
0"
0$
#30050
b1010101 3
1"
1$
#30100
0"
0$
#30150
b1010110 3
1"
1$
#30200
0"
0$
#30250
b1010111 3
1"
1$
#30300
0"
0$
#30350
b1011000 3
1"
1$
#30400
0"
0$
#30450
b1011001 3
1"
1$
#30500
0"
0$
#30550
b1011010 3
1"
1$
#30600
0"
0$
#30650
b1011011 3
1"
1$
#30700
0"
0$
#30750
b1011100 3
1"
1$
#30800
0"
0$
#30850
b1011101 3
1"
1$
#30900
0"
0$
#30950
b1011110 3
1"
1$
#31000
0"
0$
#31050
b1011111 3
1"
1$
#31100
0"
0$
#31150
b1100000 3
1"
1$
#31200
0"
0$
#31250
b1100001 3
1"
1$
#31300
0"
0$
#31350
b1100010 3
1"
1$
#31400
0"
0$
#31450
b1100011 3
1"
1$
#31500
0"
0$
#31550
b1100100 3
1"
1$
#31600
0"
0$
#31650
b1100101 3
1"
1$
#31700
0"
0$
#31750
b1100110 3
1"
1$
#31800
0"
0$
#31850
b1100111 3
1"
1$
#31900
0"
0$
#31950
1&
b0 3
1"
1$
#32000
0"
0$
#32050
0&
1)
12
b1 3
b1111010000 /
b100 *
1"
1$
#32100
0"
0$
#32150
b10 3
1"
1$
#32200
0"
0$
#32250
b11 3
1"
1$
#32300
0"
0$
#32350
b100 3
1"
1$
#32400
0"
0$
#32450
b101 3
1"
1$
#32500
0"
0$
#32550
b110 3
1"
1$
#32600
0"
0$
#32650
b111 3
1"
1$
#32700
0"
0$
#32750
b1000 3
1"
1$
#32800
0"
0$
#32850
b1001 3
1"
1$
#32900
0"
0$
#32950
b1010 3
1"
1$
#33000
0"
0$
#33050
b1011 3
1"
1$
#33100
0"
0$
#33150
b1100 3
1"
1$
#33200
0"
0$
#33250
b1101 3
1"
1$
#33300
0"
0$
#33350
b1110 3
1"
1$
#33400
0"
0$
#33450
b1111 3
1"
1$
#33500
0"
0$
#33550
b10000 3
1"
1$
#33600
0"
0$
#33650
b10001 3
1"
1$
#33700
0"
0$
#33750
b10010 3
1"
1$
#33800
0"
0$
#33850
b10011 3
1"
1$
#33900
0"
0$
#33950
b10100 3
1"
1$
#34000
0"
0$
#34050
b10101 3
1"
1$
#34100
0"
0$
#34150
b10110 3
1"
1$
#34200
0"
0$
#34250
b10111 3
1"
1$
#34300
0"
0$
#34350
b11000 3
1"
1$
#34400
0"
0$
#34450
b11001 3
1"
1$
#34500
0"
0$
#34550
b11010 3
1"
1$
#34600
0"
0$
#34650
b11011 3
1"
1$
#34700
0"
0$
#34750
b11100 3
1"
1$
#34800
0"
0$
#34850
b11101 3
1"
1$
#34900
0"
0$
#34950
b11110 3
1"
1$
#35000
0"
0$
#35050
b11111 3
1"
1$
#35100
0"
0$
#35150
b100000 3
1"
1$
#35200
0"
0$
#35250
b100001 3
1"
1$
#35300
0"
0$
#35350
b100010 3
1"
1$
#35400
0"
0$
#35450
b100011 3
1"
1$
#35500
0"
0$
#35550
b100100 3
1"
1$
#35600
0"
0$
#35650
b100101 3
1"
1$
#35700
0"
0$
#35750
b100110 3
1"
1$
#35800
0"
0$
#35850
b100111 3
1"
1$
#35900
0"
0$
#35950
b101000 3
1"
1$
#36000
0"
0$
#36050
b101001 3
1"
1$
#36100
0"
0$
#36150
b101010 3
1"
1$
#36200
0"
0$
#36250
b101011 3
1"
1$
#36300
0"
0$
#36350
b101100 3
1"
1$
#36400
0"
0$
#36450
b101101 3
1"
1$
#36500
0"
0$
#36550
b101110 3
1"
1$
#36600
0"
0$
#36650
b101111 3
1"
1$
#36700
0"
0$
#36750
b110000 3
1"
1$
#36800
0"
0$
#36850
b110001 3
1"
1$
#36900
0"
0$
#36950
b110010 3
1"
1$
#37000
0"
0$
#37050
b110011 3
1"
1$
#37100
0"
0$
#37150
b110100 3
1"
1$
#37200
0"
0$
#37250
b110101 3
1"
1$
#37300
0"
0$
#37350
b110110 3
1"
1$
#37400
0"
0$
#37450
b110111 3
1"
1$
#37500
0"
0$
#37550
b111000 3
1"
1$
#37600
0"
0$
#37650
b111001 3
1"
1$
#37700
0"
0$
#37750
b111010 3
1"
1$
#37800
0"
0$
#37850
b111011 3
1"
1$
#37900
0"
0$
#37950
b111100 3
1"
1$
#38000
0"
0$
#38050
b111101 3
1"
1$
#38100
0"
0$
#38150
b111110 3
1"
1$
#38200
0"
0$
#38250
b111111 3
1"
1$
#38300
0"
0$
#38350
b1000000 3
1"
1$
#38400
0"
0$
#38450
b1000001 3
1"
1$
#38500
0"
0$
#38550
b1000010 3
1"
1$
#38600
0"
0$
#38650
b1000011 3
1"
1$
#38700
0"
0$
#38750
b1000100 3
1"
1$
#38800
0"
0$
#38850
b1000101 3
1"
1$
#38900
0"
0$
#38950
b1000110 3
1"
1$
#39000
0"
0$
#39050
b1000111 3
1"
1$
#39100
0"
0$
#39150
b1001000 3
1"
1$
#39200
0"
0$
#39250
b1001001 3
1"
1$
#39300
0"
0$
#39350
b1001010 3
1"
1$
#39400
0"
0$
#39450
b1001011 3
1"
1$
#39500
0"
0$
#39550
b1001100 3
1"
1$
#39600
0"
0$
#39650
b1001101 3
1"
1$
#39700
0"
0$
#39750
b1001110 3
1"
1$
#39800
0"
0$
#39850
b1001111 3
1"
1$
#39900
0"
0$
#39950
b1010000 3
1"
1$
#40000
0"
0$
#40050
b1010001 3
1"
1$
#40100
0"
0$
#40150
b1010010 3
1"
1$
#40200
0"
0$
#40250
b1010011 3
1"
1$
#40300
0"
0$
#40350
b1010100 3
1"
1$
#40400
0"
0$
#40450
b1010101 3
1"
1$
#40500
0"
0$
#40550
b1010110 3
1"
1$
#40600
0"
0$
#40650
b1010111 3
1"
1$
#40700
0"
0$
#40750
b1011000 3
1"
1$
#40800
0"
0$
#40850
b1011001 3
1"
1$
#40900
0"
0$
#40950
b1011010 3
1"
1$
#41000
0"
0$
#41050
b1011011 3
1"
1$
#41100
0"
0$
#41150
b1011100 3
1"
1$
#41200
0"
0$
#41250
b1011101 3
1"
1$
#41300
0"
0$
#41350
b1011110 3
1"
1$
#41400
0"
0$
#41450
b1011111 3
1"
1$
#41500
0"
0$
#41550
b1100000 3
1"
1$
#41600
0"
0$
#41650
b1100001 3
1"
1$
#41700
0"
0$
#41750
b1100010 3
1"
1$
#41800
0"
0$
#41850
b1100011 3
1"
1$
#41900
0"
0$
#41950
b1100100 3
1"
1$
#42000
0"
0$
#42050
b1100101 3
1"
1$
#42100
0"
0$
#42150
b1100110 3
1"
1$
#42200
0"
0$
#42250
b1100111 3
1"
1$
#42300
0"
0$
#42350
1&
b0 3
1"
1$
#42400
0"
0$
#42450
0&
1)
12
b1 3
b1111101000 /
b101 *
1"
1$
#42500
0"
0$
#42550
b10 3
1"
1$
#42600
0"
0$
#42650
b11 3
1"
1$
#42700
0"
0$
#42750
b100 3
1"
1$
#42800
0"
0$
#42850
b101 3
1"
1$
#42900
0"
0$
#42950
b110 3
1"
1$
#43000
0"
0$
#43050
b111 3
1"
1$
#43100
0"
0$
#43150
b1000 3
1"
1$
#43200
0"
0$
#43250
b1001 3
1"
1$
#43300
0"
0$
#43350
b1010 3
1"
1$
#43400
0"
0$
#43450
b1011 3
1"
1$
#43500
0"
0$
#43550
b1100 3
1"
1$
#43600
0"
0$
#43650
b1101 3
1"
1$
#43700
0"
0$
#43750
b1110 3
1"
1$
#43800
0"
0$
#43850
b1111 3
1"
1$
#43900
0"
0$
#43950
b10000 3
1"
1$
#44000
0"
0$
#44050
b10001 3
1"
1$
#44100
0"
0$
#44150
b10010 3
1"
1$
#44200
0"
0$
#44250
b10011 3
1"
1$
#44300
0"
0$
#44350
b10100 3
1"
1$
#44400
0"
0$
#44450
b10101 3
1"
1$
#44500
0"
0$
#44550
b10110 3
1"
1$
#44600
0"
0$
#44650
b10111 3
1"
1$
#44700
0"
0$
#44750
b11000 3
1"
1$
#44800
0"
0$
#44850
b11001 3
1"
1$
#44900
0"
0$
#44950
b11010 3
1"
1$
#45000
0"
0$
#45050
b11011 3
1"
1$
#45100
0"
0$
#45150
b11100 3
1"
1$
#45200
0"
0$
#45250
b11101 3
1"
1$
#45300
0"
0$
#45350
b11110 3
1"
1$
#45400
0"
0$
#45450
b11111 3
1"
1$
#45500
0"
0$
#45550
b100000 3
1"
1$
#45600
0"
0$
#45650
b100001 3
1"
1$
#45700
0"
0$
#45750
b100010 3
1"
1$
#45800
0"
0$
#45850
b100011 3
1"
1$
#45900
0"
0$
#45950
b100100 3
1"
1$
#46000
0"
0$
#46050
b100101 3
1"
1$
#46100
0"
0$
#46150
b100110 3
1"
1$
#46200
0"
0$
#46250
b100111 3
1"
1$
#46300
0"
0$
#46350
b101000 3
1"
1$
#46400
0"
0$
#46450
b101001 3
1"
1$
#46500
0"
0$
#46550
b101010 3
1"
1$
#46600
0"
0$
#46650
b101011 3
1"
1$
#46700
0"
0$
#46750
b101100 3
1"
1$
#46800
0"
0$
#46850
b101101 3
1"
1$
#46900
0"
0$
#46950
b101110 3
1"
1$
#47000
0"
0$
#47050
b101111 3
1"
1$
#47100
0"
0$
#47150
b110000 3
1"
1$
#47200
0"
0$
#47250
b110001 3
1"
1$
#47300
0"
0$
#47350
b110010 3
1"
1$
#47400
0"
0$
#47450
b110011 3
1"
1$
#47500
0"
0$
#47550
b110100 3
1"
1$
#47600
0"
0$
#47650
b110101 3
1"
1$
#47700
0"
0$
#47750
b110110 3
1"
1$
#47800
0"
0$
#47850
b110111 3
1"
1$
#47900
0"
0$
#47950
b111000 3
1"
1$
#48000
0"
0$
#48050
b111001 3
1"
1$
#48100
0"
0$
#48150
b111010 3
1"
1$
#48200
0"
0$
#48250
b111011 3
1"
1$
#48300
0"
0$
#48350
b111100 3
1"
1$
#48400
0"
0$
#48450
b111101 3
1"
1$
#48500
0"
0$
#48550
b111110 3
1"
1$
#48600
0"
0$
#48650
b111111 3
1"
1$
#48700
0"
0$
#48750
b1000000 3
1"
1$
#48800
0"
0$
#48850
b1000001 3
1"
1$
#48900
0"
0$
#48950
b1000010 3
1"
1$
#49000
0"
0$
#49050
b1000011 3
1"
1$
#49100
0"
0$
#49150
b1000100 3
1"
1$
#49200
0"
0$
#49250
b1000101 3
1"
1$
#49300
0"
0$
#49350
b1000110 3
1"
1$
#49400
0"
0$
#49450
b1000111 3
1"
1$
#49500
0"
0$
#49550
b1001000 3
1"
1$
#49600
0"
0$
#49650
b1001001 3
1"
1$
#49700
0"
0$
#49750
b1001010 3
1"
1$
#49800
0"
0$
#49850
b1001011 3
1"
1$
#49900
0"
0$
#49950
b1001100 3
1"
1$
#50000
0"
0$
#50050
b1001101 3
1"
1$
#50100
0"
0$
#50150
b1001110 3
1"
1$
#50200
0"
0$
#50250
b1001111 3
1"
1$
#50300
0"
0$
#50350
b1010000 3
1"
1$
#50400
0"
0$
#50450
b1010001 3
1"
1$
#50500
0"
0$
#50550
b1010010 3
1"
1$
#50600
0"
0$
#50650
b1010011 3
1"
1$
#50700
0"
0$
#50750
b1010100 3
1"
1$
#50800
0"
0$
#50850
b1010101 3
1"
1$
#50900
0"
0$
#50950
b1010110 3
1"
1$
#51000
0"
0$
#51050
b1010111 3
1"
1$
#51100
0"
0$
#51150
b1011000 3
1"
1$
#51200
0"
0$
#51250
b1011001 3
1"
1$
#51300
0"
0$
#51350
b1011010 3
1"
1$
#51400
0"
0$
#51450
b1011011 3
1"
1$
#51500
0"
0$
#51550
b1011100 3
1"
1$
#51600
0"
0$
#51650
b1011101 3
1"
1$
#51700
0"
0$
#51750
b1011110 3
1"
1$
#51800
0"
0$
#51850
b1011111 3
1"
1$
#51900
0"
0$
#51950
b1100000 3
1"
1$
#52000
0"
0$
#52050
b1100001 3
1"
1$
#52100
0"
0$
#52150
b1100010 3
1"
1$
#52200
0"
0$
#52250
b1100011 3
1"
1$
#52300
0"
0$
#52350
b1100100 3
1"
1$
#52400
0"
0$
#52450
b1100101 3
1"
1$
#52500
0"
0$
#52550
b1100110 3
1"
1$
#52600
0"
0$
#52650
b1100111 3
1"
1$
#52700
0"
0$
#52750
1&
b0 3
1"
1$
#52800
0"
0$
#52850
0&
1)
12
b1 3
b1111110100 /
b110 *
1"
1$
#52900
0"
0$
#52950
b10 3
1"
1$
#53000
0"
0$
#53050
b11 3
1"
1$
#53100
0"
0$
#53150
b100 3
1"
1$
#53200
0"
0$
#53250
b101 3
1"
1$
#53300
0"
0$
#53350
b110 3
1"
1$
#53400
0"
0$
#53450
b111 3
1"
1$
#53500
0"
0$
#53550
b1000 3
1"
1$
#53600
0"
0$
#53650
b1001 3
1"
1$
#53700
0"
0$
#53750
b1010 3
1"
1$
#53800
0"
0$
#53850
b1011 3
1"
1$
#53900
0"
0$
#53950
b1100 3
1"
1$
