uart-tx/examples/txstr/txstr_tb.vcd
$date
	Mon Sep 19 17:19:49 2016
$end
$version
	Icarus Verilog
$end
$timescale
	10ns
$end
$scope module txstr_tb $end
$var wire 1 ! tx $end
$var reg 1 " clk $end
$var reg 1 # rstn $end
$scope module dut $end
$var wire 1 " clk $end
$var wire 1 # rstn $end
$var wire 1 ! tx $end
$var wire 1 $ ready $end
$var reg 1 % cena $end
$var reg 3 & char_count [2:0] $end
$var reg 8 ' data [7:0] $end
$var reg 2 ( next_state [1:0] $end
$var reg 1 ) start $end
$var reg 2 * state [1:0] $end
$scope module TX0 $end
$var wire 1 " clk $end
$var wire 8 + data [7:0] $end
$var wire 1 # rstn $end
$var wire 1 ) start $end
$var wire 1 , clk_baud $end
$var reg 1 - baud_en $end
$var reg 4 . bitc [3:0] $end
$var reg 8 / data_r [7:0] $end
$var reg 1 0 load $end
$var reg 2 1 next_state [1:0] $end
$var reg 1 $ ready $end
$var reg 10 2 shifter [9:0] $end
$var reg 2 3 state [1:0] $end
$var reg 1 ! tx $end
$scope module BAUD0 $end
$var wire 1 " clk $end
$var wire 1 - clk_ena $end
$var wire 1 # rstn $end
$var wire 1 , clk_out $end
$var reg 7 4 divcounter [6:0] $end
$upscope $end
$upscope $end
$upscope $end
$upscope $end
$enddefinitions $end
#0
$dumpvars
b0 4
b0 3
b1111111111 2
b1 1
00
bx /
b0 .
0-
0,
b1001000 +
b0 *
1)
b1 (
b1001000 '
b0 &
0%
1$
0#
1"
x!
$end
#5
0"
#10
1!
b1001000 /
1"
#15
0"
#20
1"
#25
0"
#30
1"
#35
0"
#40
b10 1
0$
1-
10
b1 (
0)
b1100111 4
b1 3
b1 *
1"
1#
#45
0"
#50
1-
00
1,
b10 3
b100100001 2
b0 4
1"
#55
0"
#60
0,
1-
b1 4
b1010010000 2
b1 .
1"
#65
0"
#70
0!
b10 4
1"
#75
0"
#80
b11 4
1"
#85
0"
#90
b100 4
1"
#95
0"
#100
b101 4
1"
#105
0"
#110
b110 4
1"
#115
0"
#120
b111 4
1"
#125
0"
#130
b1000 4
1"
#135
0"
#140
b1001 4
1"
#145
0"
#150
b1010 4
1"
#155
0"
#160
b1011 4
1"
#165
0"
#170
b1100 4
1"
#175
0"
#180
b1101 4
1"
#185
0"
#190
b1110 4
1"
#195
0"
#200
b1111 4
1"
#205
0"
#210
b10000 4
1"
#215
0"
#220
b10001 4
1"
#225
0"
#230
b10010 4
1"
#235
0"
#240
b10011 4
1"
#245
0"
#250
b10100 4
1"
#255
0"
#260
b10101 4
1"
#265
0"
#270
b10110 4
1"
#275
0"
#280
b10111 4
1"
#285
0"
#290
b11000 4
1"
#295
0"
#300
b11001 4
1"
#305
0"
#310
b11010 4
1"
#315
0"
#320
b11011 4
1"
#325
0"
#330
b11100 4
1"
#335
0"
#340
b11101 4
1"
#345
0"
#350
b11110 4
1"
#355
0"
#360
b11111 4
1"
#365
0"
#370
b100000 4
1"
#375
0"
#380
b100001 4
1"
#385
0"
#390
b100010 4
1"
#395
0"
#400
b100011 4
1"
#405
0"
#410
b100100 4
1"
#415
0"
#420
b100101 4
1"
#425
0"
#430
b100110 4
1"
#435
0"
#440
b100111 4
1"
#445
0"
#450
b101000 4
1"
#455
0"
#460
b101001 4
1"
#465
0"
#470
b101010 4
1"
#475
0"
#480
b101011 4
1"
#485
0"
#490
b101100 4
1"
#495
0"
#500
b101101 4
1"
#505
0"
#510
b101110 4
1"
#515
0"
#520
b101111 4
1"
#525
0"
#530
b110000 4
1"
#535
0"
#540
b110001 4
1"
#545
0"
#550
b110010 4
1"
#555
0"
#560
b110011 4
1"
#565
0"
#570
b110100 4
1"
#575
0"
#580
b110101 4
1"
#585
0"
#590
b110110 4
1"
#595
0"
#600
b110111 4
1"
#605
0"
#610
b111000 4
1"
#615
0"
#620
b111001 4
1"
#625
0"
#630
b111010 4
1"
#635
0"
#640
b111011 4
1"
#645
0"
#650
b111100 4
1"
#655
0"
#660
b111101 4
1"
#665
0"
#670
b111110 4
1"
#675
0"
#680
b111111 4
1"
#685
0"
#690
b1000000 4
1"
#695
0"
#700
b1000001 4
1"
#705
0"
#710
b1000010 4
1"
#715
0"
#720
b1000011 4
1"
#725
0"
#730
b1000100 4
1"
#735
0"
#740
b1000101 4
1"
#745
0"
#750
b1000110 4
1"
#755
0"
#760
b1000111 4
1"
#765
0"
#770
b1001000 4
1"
#775
0"
#780
b1001001 4
1"
#785
0"
#790
b1001010 4
1"
#795
0"
#800
b1001011 4
1"
#805
0"
#810
b1001100 4
1"
#815
0"
#820
b1001101 4
1"
#825
0"
#830
b1001110 4
1"
#835
0"
#840
b1001111 4
1"
#845
0"
#850
b1010000 4
1"
#855
0"
#860
b1010001 4
1"
#865
0"
#870
b1010010 4
1"
#875
0"
#880
b1010011 4
1"
#885
0"
#890
b1010100 4
1"
#895
0"
#900
b1010101 4
1"
#905
0"
#910
b1010110 4
1"
#915
0"
#920
b1010111 4
1"
#925
0"
#930
b1011000 4
1"
#935
0"
#940
b1011001 4
1"
#945
0"
#950
b1011010 4
1"
#955
0"
#960
b1011011 4
1"
#965
0"
#970
b1011100 4
1"
#975
0"
#980
b1011101 4
1"
#985
0"
#990
b1011110 4
1"
#995
0"
#1000
b1011111 4
1"
#1005
0"
#1010
b1100000 4
1"
#1015
0"
#1020
b1100001 4
1"
#1025
0"
#1030
b1100010 4
1"
#1035
0"
#1040
b1100011 4
1"
#1045
0"
#1050
b1100100 4
1"
#1055
0"
#1060
b1100101 4
1"
#1065
0"
#1070
b1100110 4
1"
#1075
0"
#1080
b1100111 4
1"
#1085
0"
#1090
1,
b0 4
1"
#1095
0"
#1100
0,
1-
b1 4
b1101001000 2
b10 .
1"
#1105
0"
#1110
b10 4
1"
#1115
0"
#1120
b11 4
1"
#1125
0"
#1130
b100 4
1"
#1135
0"
#1140
b101 4
1"
#1145
0"
#1150
b110 4
1"
#1155
0"
#1160
b111 4
1"
#1165
0"
#1170
b1000 4
1"
#1175
0"
#1180
b1001 4
1"
#1185
0"
#1190
b1010 4
1"
#1195
0"
#1200
b1011 4
1"
#1205
0"
#1210
b1100 4
1"
#1215
0"
#1220
b1101 4
1"
#1225
0"
#1230
b1110 4
1"
#1235
0"
#1240
b1111 4
1"
#1245
0"
#1250
b10000 4
1"
#1255
0"
#1260
b10001 4
1"
#1265
0"
#1270
b10010 4
1"
#1275
0"
#1280
b10011 4
1"
#1285
0"
#1290
b10100 4
1"
#1295
0"
#1300
b10101 4
1"
#1305
0"
#1310
b10110 4
1"
#1315
0"
#1320
b10111 4
1"
#1325
0"
#1330
b11000 4
1"
#1335
0"
#1340
b11001 4
1"
#1345
0"
#1350
b11010 4
1"
#1355
0"
#1360
b11011 4
1"
#1365
0"
#1370
b11100 4
1"
#1375
0"
#1380
b11101 4
1"
#1385
0"
#1390
b11110 4
1"
#1395
0"
#1400
b11111 4
1"
#1405
0"
#1410
b100000 4
1"
#1415
0"
#1420
b100001 4
1"
#1425
0"
#1430
b100010 4
1"
#1435
0"
#1440
b100011 4
1"
#1445
0"
#1450
b100100 4
1"
#1455
0"
#1460
b100101 4
1"
#1465
0"
#1470
b100110 4
1"
#1475
0"
#1480
b100111 4
1"
#1485
0"
#1490
b101000 4
1"
#1495
0"
#1500
b101001 4
1"
#1505
0"
#1510
b101010 4
1"
#1515
0"
#1520
b101011 4
1"
#1525
0"
#1530
b101100 4
1"
#1535
0"
#1540
b101101 4
1"
#1545
0"
#1550
b101110 4
1"
#1555
0"
#1560
b101111 4
1"
#1565
0"
#1570
b110000 4
1"
#1575
0"
#1580
b110001 4
1"
#1585
0"
#1590
b110010 4
1"
#1595
0"
#1600
b110011 4
1"
#1605
0"
#1610
b110100 4
1"
#1615
0"
#1620
b110101 4
1"
#1625
0"
#1630
b110110 4
1"
#1635
0"
#1640
b110111 4
1"
#1645
0"
#1650
b111000 4
1"
#1655
0"
#1660
b111001 4
1"
#1665
0"
#1670
b111010 4
1"
#1675
0"
#1680
b111011 4
1"
#1685
0"
#1690
b111100 4
1"
#1695
0"
#1700
b111101 4
1"
#1705
0"
#1710
b111110 4
1"
#1715
0"
#1720
b111111 4
1"
#1725
0"
#1730
b1000000 4
1"
#1735
0"
#1740
b1000001 4
1"
#1745
0"
#1750
b1000010 4
1"
#1755
0"
#1760
b1000011 4
1"
#1765
0"
#1770
b1000100 4
1"
#1775
0"
#1780
b1000101 4
1"
#1785
0"
#1790
b1000110 4
1"
#1795
0"
#1800
b1000111 4
1"
#1805
0"
#1810
b1001000 4
1"
#1815
0"
#1820
b1001001 4
1"
#1825
0"
#1830
b1001010 4
1"
#1835
0"
#1840
b1001011 4
1"
#1845
0"
#1850
b1001100 4
1"
#1855
0"
#1860
b1001101 4
1"
#1865
0"
#1870
b1001110 4
1"
#1875
0"
#1880
b1001111 4
1"
#1885
0"
#1890
b1010000 4
1"
#1895
0"
#1900
b1010001 4
1"
#1905
0"
#1910
b1010010 4
1"
#1915
0"
#1920
b1010011 4
1"
#1925
0"
#1930
b1010100 4
1"
#1935
0"
#1940
b1010101 4
1"
#1945
0"
#1950
b1010110 4
1"
#1955
0"
#1960
b1010111 4
1"
#1965
0"
#1970
b1011000 4
1"
#1975
0"
#1980
b1011001 4
1"
#1985
0"
#1990
b1011010 4
1"
#1995
0"
#2000
b1011011 4
1"
#2005
0"
#2010
b1011100 4
1"
#2015
0"
#2020
b1011101 4
1"
#2025
0"
#2030
b1011110 4
1"
#2035
0"
#2040
b1011111 4
1"
#2045
0"
#2050
b1100000 4
1"
#2055
0"
#2060
b1100001 4
1"
#2065
0"
#2070
b1100010 4
1"
#2075
0"
#2080
b1100011 4
1"
#2085
0"
#2090
b1100100 4
1"
#2095
0"
#2100
b1100101 4
1"
#2105
0"
#2110
b1100110 4
1"
#2115
0"
#2120
b1100111 4
1"
#2125
0"
#2130
1,
b0 4
1"
#2135
0"
#2140
0,
1-
b1 4
b1110100100 2
b11 .
1"
#2145
0"
#2150
b10 4
1"
#2155
0"
#2160
b11 4
1"
#2165
0"
#2170
b100 4
1"
#2175
0"
#2180
b101 4
1"
#2185
0"
#2190
b110 4
1"
#2195
0"
#2200
b111 4
1"
#2205
0"
#2210
b1000 4
1"
#2215
0"
#2220
b1001 4
1"
#2225
0"
#2230
b1010 4
1"
#2235
0"
#2240
b1011 4
1"
#2245
0"
#2250
b1100 4
1"
#2255
0"
#2260
b1101 4
1"
#2265
0"
#2270
b1110 4
1"
#2275
0"
#2280
b1111 4
1"
#2285
0"
#2290
b10000 4
1"
#2295
0"
#2300
b10001 4
1"
#2305
0"
#2310
b10010 4
1"
#2315
0"
#2320
b10011 4
1"
#2325
0"
#2330
b10100 4
1"
#2335
0"
#2340
b10101 4
1"
#2345
0"
#2350
b10110 4
1"
#2355
0"
#2360
b10111 4
1"
#2365
0"
#2370
b11000 4
1"
#2375
0"
#2380
b11001 4
1"
#2385
0"
#2390
b11010 4
1"
#2395
0"
#2400
b11011 4
1"
#2405
0"
#2410
b11100 4
1"
#2415
0"
#2420
b11101 4
1"
#2425
0"
#2430
b11110 4
1"
#2435
0"
#2440
b11111 4
1"
#2445
0"
#2450
b100000 4
1"
#2455
0"
#2460
b100001 4
1"
#2465
0"
#2470
b100010 4
1"
#2475
0"
#2480
b100011 4
1"
#2485
0"
#2490
b100100 4
1"
#2495
0"
#2500
b100101 4
1"
#2505
0"
#2510
b100110 4
1"
#2515
0"
#2520
b100111 4
1"
#2525
0"
#2530
b101000 4
1"
#2535
0"
#2540
b101001 4
1"
#2545
0"
#2550
b101010 4
1"
#2555
0"
#2560
b101011 4
1"
#2565
0"
#2570
b101100 4
1"
#2575
0"
#2580
b101101 4
1"
#2585
0"
#2590
b101110 4
1"
#2595
0"
#2600
b101111 4
1"
#2605
0"
#2610
b110000 4
1"
#2615
0"
#2620
b110001 4
1"
#2625
0"
#2630
b110010 4
1"
#2635
0"
#2640
b110011 4
1"
#2645
0"
#2650
b110100 4
1"
#2655
0"
#2660
b110101 4
1"
#2665
0"
#2670
b110110 4
1"
#2675
0"
#2680
b110111 4
1"
#2685
0"
#2690
b111000 4
1"
#2695
0"
#2700
b111001 4
1"
#2705
0"
#2710
b111010 4
1"
#2715
0"
#2720
b111011 4
1"
#2725
0"
#2730
b111100 4
1"
#2735
0"
#2740
b111101 4
1"
#2745
0"
#2750
b111110 4
1"
#2755
0"
#2760
b111111 4
1"
#2765
0"
#2770
b1000000 4
1"
#2775
0"
#2780
b1000001 4
1"
#2785
0"
#2790
b1000010 4
1"
#2795
0"
#2800
b1000011 4
1"
#2805
0"
#2810
b1000100 4
1"
#2815
0"
#2820
b1000101 4
1"
#2825
0"
#2830
b1000110 4
1"
#2835
0"
#2840
b1000111 4
1"
#2845
0"
#2850
b1001000 4
1"
#2855
0"
#2860
b1001001 4
1"
#2865
0"
#2870
b1001010 4
1"
#2875
0"
#2880
b1001011 4
1"
#2885
0"
#2890
b1001100 4
1"
#2895
0"
#2900
b1001101 4
1"
#2905
0"
#2910
b1001110 4
1"
#2915
0"
#2920
b1001111 4
1"
#2925
0"
#2930
b1010000 4
1"
#2935
0"
#2940
b1010001 4
1"
#2945
0"
#2950
b1010010 4
1"
#2955
0"
#2960
b1010011 4
1"
#2965
0"
#2970
b1010100 4
1"
#2975
0"
#2980
b1010101 4
1"
#2985
0"
#2990
b1010110 4
1"
#2995
0"
#3000
b1010111 4
1"
#3005
0"
#3010
b1011000 4
1"
#3015
0"
#3020
b1011001 4
1"
#3025
0"
#3030
b1011010 4
1"
#3035
0"
#3040
b1011011 4
1"
#3045
0"
#3050
b1011100 4
1"
#3055
0"
#3060
b1011101 4
1"
#3065
0"
#3070
b1011110 4
1"
#3075
0"
#3080
b1011111 4
1"
#3085
0"
#3090
b1100000 4
1"
#3095
0"
#3100
b1100001 4
1"
#3105
0"
#3110
b1100010 4
1"
#3115
0"
#3120
b1100011 4
1"
#3125
0"
#3130
b1100100 4
1"
#3135
0"
#3140
b1100101 4
1"
#3145
0"
#3150
b1100110 4
1"
#3155
0"
#3160
b1100111 4
1"
#3165
0"
#3170
1,
b0 4
1"
#3175
0"
#3180
0,
1-
b1 4
b1111010010 2
b100 .
1"
#3185
0"
#3190
b10 4
1"
#3195
0"
#3200
b11 4
1"
#3205
0"
#3210
b100 4
1"
#3215
0"
#3220
b101 4
1"
#3225
0"
#3230
b110 4
1"
#3235
0"
#3240
b111 4
1"
#3245
0"
#3250
b1000 4
1"
#3255
0"
#3260
b1001 4
1"
#3265
0"
#3270
b1010 4
1"
#3275
0"
#3280
b1011 4
1"
#3285
0"
#3290
b1100 4
1"
#3295
0"
#3300
b1101 4
1"
#3305
0"
#3310
b1110 4
1"
#3315
0"
#3320
b1111 4
1"
#3325
0"
#3330
b10000 4
1"
#3335
0"
#3340
b10001 4
1"
#3345
0"
#3350
b10010 4
1"
#3355
0"
#3360
b10011 4
1"
#3365
0"
#3370
b10100 4
1"
#3375
0"
#3380
b10101 4
1"
#3385
0"
#3390
b10110 4
1"
#3395
0"
#3400
b10111 4
1"
#3405
0"
#3410
b11000 4
1"
#3415
0"
#3420
b11001 4
1"
#3425
0"
#3430
b11010 4
1"
#3435
0"
#3440
b11011 4
1"
#3445
0"
#3450
b11100 4
1"
#3455
0"
#3460
b11101 4
1"
#3465
0"
#3470
b11110 4
1"
#3475
0"
#3480
b11111 4
1"
#3485
0"
#3490
b100000 4
1"
#3495
0"
#3500
b100001 4
1"
#3505
0"
#3510
b100010 4
1"
#3515
0"
#3520
b100011 4
1"
#3525
0"
#3530
b100100 4
1"
#3535
0"
#3540
b100101 4
1"
#3545
0"
#3550
b100110 4
1"
#3555
0"
#3560
b100111 4
1"
#3565
0"
#3570
b101000 4
1"
#3575
0"
#3580
b101001 4
1"
#3585
0"
#3590
b101010 4
1"
#3595
0"
#3600
b101011 4
1"
#3605
0"
#3610
b101100 4
1"
#3615
0"
#3620
b101101 4
1"
#3625
0"
#3630
b101110 4
1"
#3635
0"
#3640
b101111 4
1"
#3645
0"
#3650
b110000 4
1"
#3655
0"
#3660
b110001 4
1"
#3665
0"
#3670
b110010 4
1"
#3675
0"
#3680
b110011 4
1"
#3685
0"
#3690
b110100 4
1"
#3695
0"
#3700
b110101 4
1"
#3705
0"
#3710
b110110 4
1"
#3715
0"
#3720
b110111 4
1"
#3725
0"
#3730
b111000 4
1"
#3735
0"
#3740
b111001 4
1"
#3745
0"
#3750
b111010 4
1"
#3755
0"
#3760
b111011 4
1"
#3765
0"
#3770
b111100 4
1"
#3775
0"
#3780
b111101 4
1"
#3785
0"
#3790
b111110 4
1"
#3795
0"
#3800
b111111 4
1"
#3805
0"
#3810
b1000000 4
1"
#3815
0"
#3820
b1000001 4
1"
#3825
0"
#3830
b1000010 4
1"
#3835
0"
#3840
b1000011 4
1"
#3845
0"
#3850
b1000100 4
1"
#3855
0"
#3860
b1000101 4
1"
#3865
0"
#3870
b1000110 4
1"
#3875
0"
#3880
b1000111 4
1"
#3885
0"
#3890
b1001000 4
1"
#3895
0"
#3900
b1001001 4
1"
#3905
0"
#3910
b1001010 4
1"
#3915
0"
#3920
b1001011 4
1"
#3925
0"
#3930
b1001100 4
1"
#3935
0"
#3940
b1001101 4
1"
#3945
0"
#3950
b1001110 4
1"
#3955
0"
#3960
b1001111 4
1"
#3965
0"
#3970
b1010000 4
1"
#3975
0"
#3980
b1010001 4
1"
#3985
0"
#3990
b1010010 4
1"
#3995
0"
#4000
b1010011 4
1"
#4005
0"
#4010
b1010100 4
1"
#4015
0"
#4020
b1010101 4
1"
#4025
0"
#4030
b1010110 4
1"
#4035
0"
#4040
b1010111 4
1"
#4045
0"
#4050
b1011000 4
1"
#4055
0"
#4060
b1011001 4
1"
#4065
0"
#4070
b1011010 4
1"
#4075
0"
#4080
b1011011 4
1"
#4085
0"
#4090
b1011100 4
1"
#4095
0"
#4100
b1011101 4
1"
#4105
0"
#4110
b1011110 4
1"
#4115
0"
#4120
b1011111 4
1"
#4125
0"
#4130
b1100000 4
1"
#4135
0"
#4140
b1100001 4
1"
#4145
0"
#4150
b1100010 4
1"
#4155
0"
#4160
b1100011 4
1"
#4165
0"
#4170
b1100100 4
1"
#4175
0"
#4180
b1100101 4
1"
#4185
0"
#4190
b1100110 4
1"
#4195
0"
#4200
b1100111 4
1"
#4205
0"
#4210
1,
b0 4
1"
#4215
0"
#4220
0,
1-
b1 4
b1111101001 2
b101 .
1"
#4225
0"
#4230
1!
b10 4
1"
#4235
0"
#4240
b11 4
1"
#4245
0"
#4250
b100 4
1"
#4255
0"
#4260
b101 4
1"
#4265
0"
#4270
b110 4
1"
#4275
0"
#4280
b111 4
1"
#4285
0"
#4290
b1000 4
1"
#4295
0"
#4300
b1001 4
1"
#4305
0"
#4310
b1010 4
1"
#4315
0"
#4320
b1011 4
1"
#4325
0"
#4330
b1100 4
1"
#4335
0"
#4340
b1101 4
1"
#4345
0"
#4350
b1110 4
1"
#4355
0"
#4360
b1111 4
1"
#4365
0"
#4370
b10000 4
1"
#4375
0"
#4380
b10001 4
1"
#4385
0"
#4390
b10010 4
1"
#4395
0"
#4400
b10011 4
1"
#4405
0"
#4410
b10100 4
1"
#4415
0"
#4420
b10101 4
1"
#4425
0"
#4430
b10110 4
1"
#4435
0"
#4440
b10111 4
1"
#4445
0"
#4450
b11000 4
1"
#4455
0"
#4460
b11001 4
1"
#4465
0"
#4470
b11010 4
1"
#4475
0"
#4480
b11011 4
1"
#4485
0"
#4490
b11100 4
1"
#4495
0"
#4500
b11101 4
1"
#4505
0"
#4510
b11110 4
1"
#4515
0"
#4520
b11111 4
1"
#4525
0"
#4530
b100000 4
1"
#4535
0"
#4540
b100001 4
1"
#4545
0"
#4550
b100010 4
1"
#4555
0"
#4560
b100011 4
1"
#4565
0"
#4570
b100100 4
1"
#4575
0"
#4580
b100101 4
1"
#4585
0"
#4590
b100110 4
1"
#4595
0"
#4600
b100111 4
1"
#4605
0"
#4610
b101000 4
1"
#4615
0"
#4620
b101001 4
1"
#4625
0"
#4630
b101010 4
1"
#4635
0"
#4640
b101011 4
1"
#4645
0"
#4650
b101100 4
1"
#4655
0"
#4660
b101101 4
1"
#4665
0"
#4670
b101110 4
1"
#4675
0"
#4680
b101111 4
1"
#4685
0"
#4690
b110000 4
1"
#4695
0"
#4700
b110001 4
1"
#4705
0"
#4710
b110010 4
1"
#4715
0"
#4720
b110011 4
1"
#4725
0"
#4730
b110100 4
1"
#4735
0"
#4740
b110101 4
1"
#4745
0"
#4750
b110110 4
1"
#4755
0"
#4760
b110111 4
1"
#4765
0"
#4770
b111000 4
1"
#4775
0"
#4780
b111001 4
1"
#4785
0"
#4790
b111010 4
1"
#4795
0"
#4800
b111011 4
1"
#4805
0"
#4810
b111100 4
1"
#4815
0"
#4820
b111101 4
1"
#4825
0"
#4830
b111110 4
1"
#4835
0"
#4840
b111111 4
1"
#4845
0"
#4850
b1000000 4
1"
#4855
0"
#4860
b1000001 4
1"
#4865
0"
#4870
b1000010 4
1"
#4875
0"
#4880
b1000011 4
1"
#4885
0"
#4890
b1000100 4
1"
#4895
0"
#4900
b1000101 4
1"
#4905
0"
#4910
b1000110 4
1"
#4915
0"
#4920
b1000111 4
1"
#4925
0"
#4930
b1001000 4
1"
#4935
0"
#4940
b1001001 4
1"
#4945
0"
#4950
b1001010 4
1"
#4955
0"
#4960
b1001011 4
1"
#4965
0"
#4970
b1001100 4
1"
#4975
0"
#4980
b1001101 4
1"
#4985
0"
#4990
b1001110 4
1"
#4995
0"
#5000
b1001111 4
1"
#5005
0"
#5010
b1010000 4
1"
#5015
0"
#5020
b1010001 4
1"
#5025
0"
#5030
b1010010 4
1"
#5035
0"
#5040
b1010011 4
1"
#5045
0"
#5050
b1010100 4
1"
#5055
0"
#5060
b1010101 4
1"
#5065
0"
#5070
b1010110 4
1"
#5075
0"
#5080
b1010111 4
1"
#5085
0"
#5090
b1011000 4
1"
#5095
0"
#5100
b1011001 4
1"
#5105
0"
#5110
b1011010 4
1"
#5115
0"
#5120
b1011011 4
1"
#5125
0"
#5130
b1011100 4
1"
#5135
0"
#5140
b1011101 4
1"
#5145
0"
#5150
b1011110 4
1"
#5155
0"
#5160
b1011111 4
1"
#5165
0"
#5170
b1100000 4
1"
#5175
0"
#5180
b1100001 4
1"
#5185
0"
#5190
b1100010 4
1"
#5195
0"
#5200
b1100011 4
1"
#5205
0"
#5210
b1100100 4
1"
#5215
0"
#5220
b1100101 4
1"
#5225
0"
#5230
b1100110 4
1"
#5235
0"
#5240
b1100111 4
1"
#5245
0"
#5250
1,
b0 4
1"
#5255
0"
#5260
0,
1-
b1 4
b1111110100 2
b110 .
1"
#5265
0"
#5270
0!
b10 4
1"
#5275
0"
#5280
b11 4
1"
#5285
0"
#5290
b100 4
1"
#5295
0"
#5300
b101 4
1"
#5305
0"
#5310
b110 4
1"
#5315
0"
#5320
b111 4
1"
#5325
0"
#5330
b1000 4
1"
#5335
0"
#5340
b1001 4
1"
#5345
0"
#5350
b1010 4
1"
#5355
0"
#5360
b1011 4
1"
#5365
0"
#5370
b1100 4
1"
#5375
0"
#5380
b1101 4
1"
#5385
0"
#5390
b1110 4
1"
#5395
0"
#5400
b1111 4
1"
#5405
0"
#5410
b10000 4
1"
#5415
0"
#5420
b10001 4
1"
#5425
0"
#5430
b10010 4
1"
#5435
0"
#5440
b10011 4
1"
#5445
0"
#5450
b10100 4
1"
#5455
0"
#5460
b10101 4
1"
#5465
0"
#5470
b10110 4
1"
#5475
0"
#5480
b10111 4
1"
#5485
0"
#5490
b11000 4
1"
#5495
0"
#5500
b11001 4
1"
#5505
0"
#5510
b11010 4
1"
#5515
0"
#5520
b11011 4
1"
#5525
0"
#5530
b11100 4
1"
#5535
0"
#5540
b11101 4
1"
#5545
0"
#5550
b11110 4
1"
#5555
0"
#5560
b11111 4
1"
#5565
0"
#5570
b100000 4
1"
#5575
0"
#5580
b100001 4
1"
#5585
0"
#5590
b100010 4
1"
#5595
0"
#5600
b100011 4
1"
#5605
0"
#5610
b100100 4
1"
#5615
0"
#5620
b100101 4
1"
#5625
0"
#5630
b100110 4
1"
#5635
0"
#5640
b100111 4
1"
#5645
0"
#5650
b101000 4
1"
#5655
0"
#5660
b101001 4
1"
#5665
0"
#5670
b101010 4
1"
#5675
0"
#5680
b101011 4
1"
#5685
0"
#5690
b101100 4
1"
#5695
0"
#5700
b101101 4
1"
#5705
0"
#5710
b101110 4
1"
#5715
0"
#5720
b101111 4
1"
#5725
0"
#5730
b110000 4
1"
#5735
0"
#5740
b110001 4
1"
#5745
0"
#5750
b110010 4
1"
#5755
0"
#5760
b110011 4
1"
#5765
0"
#5770
b110100 4
1"
#5775
0"
#5780
b110101 4
1"
#5785
0"
#5790
b110110 4
1"
#5795
0"
#5800
b110111 4
1"
#5805
0"
#5810
b111000 4
1"
#5815
0"
#5820
b111001 4
1"
#5825
0"
#5830
b111010 4
1"
#5835
0"
#5840
b111011 4
1"
#5845
0"
#5850
b111100 4
1"
#5855
0"
#5860
b111101 4
1"
#5865
0"
#5870
b111110 4
1"
#5875
0"
#5880
b111111 4
1"
#5885
0"
#5890
b1000000 4
1"
#5895
0"
#5900
b1000001 4
1"
#5905
0"
#5910
b1000010 4
1"
#5915
0"
#5920
b1000011 4
1"
#5925
0"
#5930
b1000100 4
1"
#5935
0"
#5940
b1000101 4
1"
#5945
0"
#5950
b1000110 4
1"
#5955
0"
#5960
b1000111 4
1"
#5965
0"
#5970
b1001000 4
1"
#5975
0"
#5980
b1001001 4
1"
#5985
0"
#5990
b1001010 4
1"
#5995
0"
#6000
b1001011 4
1"
#6005
0"
#6010
b1001100 4
1"
#6015
0"
#6020
b1001101 4
1"
#6025
0"
#6030
b1001110 4
1"
#6035
0"
#6040
b1001111 4
1"
#6045
0"
#6050
b1010000 4
1"
#6055
0"
#6060
b1010001 4
1"
#6065
0"
#6070
b1010010 4
1"
#6075
0"
#6080
b1010011 4
1"
#6085
0"
#6090
b1010100 4
1"
#6095
0"
#6100
b1010101 4
1"
#6105
0"
#6110
b1010110 4
1"
#6115
0"
#6120
b1010111 4
1"
#6125
0"
#6130
b1011000 4
1"
#6135
0"
#6140
b1011001 4
1"
#6145
0"
#6150
b1011010 4
1"
#6155
0"
#6160
b1011011 4
1"
#6165
0"
#6170
b1011100 4
1"
#6175
0"
#6180
b1011101 4
1"
#6185
0"
#6190
b1011110 4
1"
#6195
0"
#6200
b1011111 4
1"
#6205
0"
#6210
b1100000 4
1"
#6215
0"
#6220
b1100001 4
1"
#6225
0"
#6230
b1100010 4
1"
#6235
0"
#6240
b1100011 4
1"
#6245
0"
#6250
b1100100 4
1"
#6255
0"
#6260
b1100101 4
1"
#6265
0"
#6270
b1100110 4
1"
#6275
0"
#6280
b1100111 4
1"
#6285
0"
#6290
1,
b0 4
1"
#6295
0"
#6300
0,
1-
b1 4
b1111111010 2
b111 .
1"
#6305
0"
#6310
b10 4
1"
#6315
0"
#6320
b11 4
1"
#6325
0"
#6330
b100 4
1"
#6335
0"
#6340
b101 4
1"
#6345
0"
#6350
b110 4
1"
#6355
0"
#6360
b111 4
1"
#6365
0"
#6370
b1000 4
1"
#6375
0"
#6380
b1001 4
1"
#6385
0"
#6390
b1010 4
1"
#6395
0"
#6400
b1011 4
1"
#6405
0"
#6410
b1100 4
1"
#6415
0"
#6420
b1101 4
1"
#6425
0"
#6430
b1110 4
1"
#6435
0"
#6440
b1111 4
1"
#6445
0"
#6450
b10000 4
1"
#6455
0"
#6460
b10001 4
1"
#6465
0"
#6470
b10010 4
1"
#6475
0"
#6480
b10011 4
1"
#6485
0"
#6490
b10100 4
1"
#6495
0"
#6500
b10101 4
1"
#6505
0"
#6510
b10110 4
1"
#6515
0"
#6520
b10111 4
1"
#6525
0"
#6530
b11000 4
1"
#6535
0"
#6540
b11001 4
1"
#6545
0"
#6550
b11010 4
1"
#6555
0"
#6560
b11011 4
1"
#6565
0"
#6570
b11100 4
1"
#6575
0"
#6580
b11101 4
1"
#6585
0"
#6590
b11110 4
1"
#6595
0"
#6600
b11111 4
1"
#6605
0"
#6610
b100000 4
1"
#6615
0"
#6620
b100001 4
1"
#6625
0"
#6630
b100010 4
1"
#6635
0"
#6640
b100011 4
1"
#6645
0"
#6650
b100100 4
1"
#6655
0"
#6660
b100101 4
1"
#6665
0"
#6670
b100110 4
1"
#6675
0"
#6680
b100111 4
1"
#6685
0"
#6690
b101000 4
1"
#6695
0"
#6700
b101001 4
1"
#6705
0"
#6710
b101010 4
1"
#6715
0"
#6720
b101011 4
1"
#6725
0"
#6730
b101100 4
1"
#6735
0"
#6740
b101101 4
1"
#6745
0"
#6750
b101110 4
1"
#6755
0"
#6760
b101111 4
1"
#6765
0"
#6770
b110000 4
1"
#6775
0"
#6780
b110001 4
1"
#6785
0"
#6790
b110010 4
1"
#6795
0"
#6800
b110011 4
1"
#6805
0"
#6810
b110100 4
1"
#6815
0"
#6820
b110101 4
1"
#6825
0"
#6830
b110110 4
1"
#6835
0"
#6840
b110111 4
1"
#6845
0"
#6850
b111000 4
1"
#6855
0"
#6860
b111001 4
1"
#6865
0"
#6870
b111010 4
1"
#6875
0"
#6880
b111011 4
1"
#6885
0"
#6890
b111100 4
1"
#6895
0"
#6900
b111101 4
1"
#6905
0"
#6910
b111110 4
1"
#6915
0"
#6920
b111111 4
1"
#6925
0"
#6930
b1000000 4
1"
#6935
0"
#6940
b1000001 4
1"
#6945
0"
#6950
b1000010 4
1"
#6955
0"
#6960
b1000011 4
1"
#6965
0"
#6970
b1000100 4
1"
#6975
0"
#6980
b1000101 4
1"
#6985
0"
#6990
b1000110 4
1"
#6995
0"
#7000
b1000111 4
1"
#7005
0"
#7010
b1001000 4
1"
#7015
0"
